{
 "cwbdata": {
  "@xmlns": "urn:cwb.gov.tw:cwbdata-0.1",
  "@xmlns:xsi": "http://www.w3.org/2001/XMLSchema-instance",
  "@xsi:schemaLocation": "urn:cwb.gov.tw:cwbdata-0.1 http://odtest.cwb.gov.tw/XSD/CWB-data-0.1.xsd",
  "identifier": "472c7047-eb48-4aa1-8fc0-9be46a234889",
  "datasetID": "F-AMD-2001",
  "datasetName": "農業氣象預報",
  "dataItemID": "F-AMD-2001-00001",
  "sender": "weather@cwb.gov.tw",
  "sent": "2019-11-08T01:11:36+08:00",
  "status": "Actual",
  "scope": "Public",
  "msgType": "Issue",
  "publisherOID": "2.16.886.101.20003.20008.20004",
  "resources": {
   "resource": {
    "metadata": {
     "resourceName": "中央氣象局氣候服務_農業氣象一週預報",
     "resourceDescription": "提供氣象局預報資料和農事建議，供農業相關單位及農民參考",
     "language": "zh",
     "homepage": "https://www.cwb.gov.tw/V7/forecast/week/w44.htm",
     "sources": {
      "source": [
       {
        "title": "1週預報",
        "path": "https://www.cwb.gov.tw/V7/forecast/week/week.htm"
       },
       {
        "title": "長期天氣預報-季長期天氣展望",
        "path": "https://opendata.cwb.gov.tw/catalog%3fgroup%3df%26dataid%3dA0013-002"
       },
       {
        "title": "天氣特報-豪大雨特報",
        "path": "https://opendata.cwb.gov.tw/catalog%3fgroup%3dw%26dataid%3dC0033-003"
       }
      ]
     },
     "temporal": {
      "issueTime": "2019-11-08T17:00:00+08:00",
      "validTime": {
       "startTime": "2019-11-09T00:00:00+08:00",
       "endTime": "2019-11-16T00:00:00+08:00"
      }
     },
     "weatherElements": {
      "weatherElement": [
       {
        "tagName": "weather",
        "description": "天氣描述"
       },
       {
        "tagName": "temperature",
        "description": "氣溫",
        "units": "˚C"
       },
       {
        "tagName": "agrWeatherForecasts",
        "description": "一週農業天氣預報"
       },
       {
        "tagName": "weatherProfile",
        "description": "天氣概況"
       },
       {
        "tagName": "weatherForecasts",
        "description": "天氣預報"
       },
       {
        "tagName": "agrAdvices",
        "description": "農事建議"
       },
       {
        "tagName": "degreeDay",
        "description": "度日(植物發育時所需之有效溫度單位)",
        "units": "GDD"
       },
       {
        "tagName": "accumulatedTemperature",
        "description": "積溫(植物發育過程中，當各生育階段有效溫度累積至一定數值時，即可完成發育。該數值即稱為此一發育階段所需的積溫。)",
        "units": "ATU"
       },
       {
        "tagName": "cardinalTemperatures",
        "description": "作物生長溫度區間",
        "units": "˚C",
        "statisticalMethods": {
         "statisticalMethod": [
          {
           "methodTagName": "minimum",
           "description": "生長最低溫"
          },
          {
           "methodTagName": "maximum",
           "description": "生長最高溫"
          },
          {
           "methodTagName": "optimum",
           "description": "生長最適溫"
          }
         ]
        }
       },
       {
        "tagName": "growingDays",
        "description": "生育日數"
       },
       {
        "tagName": "cropStatistics",
        "description": "農業積溫統計"
       },
       {
        "tagName": "agrReport",
        "description": "其他建議"
       },
       {
        "tagName": "section",
        "description": "其他建議主段落"
       },
       {
        "tagName": "subsection",
        "description": "其他建議副段落"
       }
      ]
     }
    },
    "data": {
     "agrWeatherForecasts": {
      "weatherProfile": 
"9日至11日東北季風及輻射冷卻影響,各地早晚較涼,中南部日夜溫差大,各地大多為多雲到晴,僅東半部地區有零星短暫雨。12日東北季風減弱,早晚仍涼,西半部日夜溫差大;12日、13日各地大多為多雲到晴,僅東北部及東部地區局部短暫雨,13日東南部地區亦有局部短暫雨。14日東北風增強,15日東北風影響,北部及東北部天氣稍涼,其他地區早晚亦稍涼;北部及東半部地區有局部短暫雨,其他為多雲到晴。9日、10日基隆北海岸、東半部(含蘭嶼、綠島)、恆春半島及西南沿海地區有長浪發生的機率,請注意。",
      "weatherForecasts": {
       "location": [
        {
         "locationName": "北部地區",
         "weatherElements": {
          "Wx": {
           "daily": [
            {
             "dataDate": "2019-11-09",
             "weather": "晴時多雲",
             "weatherid": "2"
            },
            {
             "dataDate": "2019-11-10",
             "weather": "晴時多雲",
             "weatherid": "2"
            },
            {
             "dataDate": "2019-11-11",
             "weather": "晴時多雲",
             "weatherid": "2"
            },
            {
             "dataDate": "2019-11-12",
             "weather": "晴時多雲",
             "weatherid": "2"
            },
            {
             "dataDate": "2019-11-13",
             "weather": "晴時多雲",
             "weatherid": "2"
            },
            {
             "dataDate": "2019-11-14",
             "weather": "多雲短暫雨",
             "weatherid": "8"
            },
            {
             "dataDate": "2019-11-15",
             "weather": "多雲短暫雨",
             "weatherid": "8"
            }
           ]
          },
          "MaxT": {
           "daily": [
            {
             "dataDate": "2019-11-09",
             "temperature": "26"
            },
            {
             "dataDate": "2019-11-10",
             "temperature": "26"
            },
            {
             "dataDate": "2019-11-11",
             "temperature": "27"
            },
            {
             "dataDate": "2019-11-12",
             "temperature": "28"
            },
            {
             "dataDate": "2019-11-13",
             "temperature": "28"
            },
            {
             "dataDate": "2019-11-14",
             "temperature": "25"
            },
            {
             "dataDate": "2019-11-15",
             "temperature": "26"
            }
           ]
          },
          "MinT": {
           "daily": [
            {
             "dataDate": "2019-11-09",
             "temperature": "18"
            },
            {
             "dataDate": "2019-11-10",
             "temperature": "17"
            },
            {
             "dataDate": "2019-11-11",
             "temperature": "16"
            },
            {
             "dataDate": "2019-11-12",
             "temperature": "17"
            },
            {
             "dataDate": "2019-11-13",
             "temperature": "17"
            },
            {
             "dataDate": "2019-11-14",
             "temperature": "19"
            },
            {
             "dataDate": "2019-11-15",
             "temperature": "18"
            }
           ]
          }
         }
        },
        {
         "locationName": "中部地區",
         "weatherElements": {
          "Wx": {
           "daily": [
            {
             "dataDate": "2019-11-09",
             "weather": "晴時多雲",
             "weatherid": "2"
            },
            {
             "dataDate": "2019-11-10",
             "weather": "晴時多雲",
             "weatherid": "2"
            },
            {
             "dataDate": "2019-11-11",
             "weather": "晴時多雲",
             "weatherid": "2"
            },
            {
             "dataDate": "2019-11-12",
             "weather": "晴時多雲",
             "weatherid": "2"
            },
            {
             "dataDate": "2019-11-13",
             "weather": "晴時多雲",
             "weatherid": "2"
            },
            {
             "dataDate": "2019-11-14",
             "weather": "晴時多雲",
             "weatherid": "2"
            },
            {
             "dataDate": "2019-11-15",
             "weather": "晴時多雲",
             "weatherid": "2"
            }
           ]
          },
          "MaxT": {
           "daily": [
            {
             "dataDate": "2019-11-09",
             "temperature": "30"
            },
            {
             "dataDate": "2019-11-10",
             "temperature": "30"
            },
            {
             "dataDate": "2019-11-11",
             "temperature": "29"
            },
            {
             "dataDate": "2019-11-12",
             "temperature": "30"
            },
            {
             "dataDate": "2019-11-13",
             "temperature": "30"
            },
            {
             "dataDate": "2019-11-14",
             "temperature": "30"
            },
            {
             "dataDate": "2019-11-15",
             "temperature": "30"
            }
           ]
          },
          "MinT": {
           "daily": [
            {
             "dataDate": "2019-11-09",
             "temperature": "17"
            },
            {
             "dataDate": "2019-11-10",
             "temperature": "15"
            },
            {
             "dataDate": "2019-11-11",
             "temperature": "17"
            },
            {
             "dataDate": "2019-11-12",
             "temperature": "18"
            },
            {
             "dataDate": "2019-11-13",
             "temperature": "18"
            },
            {
             "dataDate": "2019-11-14",
             "temperature": "18"
            },
            {
             "dataDate": "2019-11-15",
             "temperature": "19"
            }
           ]
          }
         }
        },
        {
         "locationName": "南部地區",
         "weatherElements": {
          "Wx": {
           "daily": [
            {
             "dataDate": "2019-11-09",
             "weather": "晴時多雲",
             "weatherid": "2"
            },
            {
             "dataDate": "2019-11-10",
             "weather": "晴時多雲",
             "weatherid": "2"
            },
            {
             "dataDate": "2019-11-11",
             "weather": "晴時多雲",
             "weatherid": "2"
            },
            {
             "dataDate": "2019-11-12",
             "weather": "晴時多雲",
             "weatherid": "2"
            },
            {
             "dataDate": "2019-11-13",
             "weather": "多雲時晴",
             "weatherid": "3"
            },
            {
             "dataDate": "2019-11-14",
             "weather": "多雲時晴",
             "weatherid": "3"
            },
            {
             "dataDate": "2019-11-15",
             "weather": "多雲時晴",
             "weatherid": "3"
            }
           ]
          },
          "MaxT": {
           "daily": [
            {
             "dataDate": "2019-11-09",
             "temperature": "30"
            },
            {
             "dataDate": "2019-11-10",
             "temperature": "28"
            },
            {
             "dataDate": "2019-11-11",
             "temperature": "30"
            },
            {
             "dataDate": "2019-11-12",
             "temperature": "30"
            },
            {
             "dataDate": "2019-11-13",
             "temperature": "30"
            },
            {
             "dataDate": "2019-11-14",
             "temperature": "31"
            },
            {
             "dataDate": "2019-11-15",
             "temperature": "29"
            }
           ]
          },
          "MinT": {
           "daily": [
            {
             "dataDate": "2019-11-09",
             "temperature": "19"
            },
            {
             "dataDate": "2019-11-10",
             "temperature": "18"
            },
            {
             "dataDate": "2019-11-11",
             "temperature": "19"
            },
            {
             "dataDate": "2019-11-12",
             "temperature": "19"
            },
            {
             "dataDate": "2019-11-13",
             "temperature": "20"
            },
            {
             "dataDate": "2019-11-14",
             "temperature": "21"
            },
            {
             "dataDate": "2019-11-15",
             "temperature": "20"
            }
           ]
          }
         }
        },
        {
         "locationName": "東北部地區",
         "weatherElements": {
          "Wx": {
           "daily": [
            {
             "dataDate": "2019-11-09",
             "weather": "多雲時晴",
             "weatherid": "3"
            },
            {
             "dataDate": "2019-11-10",
             "weather": "多雲時晴",
             "weatherid": "3"
            },
            {
             "dataDate": "2019-11-11",
             "weather": "晴時多雲",
             "weatherid": "2"
            },
            {
             "dataDate": "2019-11-12",
             "weather": "晴時多雲",
             "weatherid": "2"
            },
            {
             "dataDate": "2019-11-13",
             "weather": "多雲短暫雨",
             "weatherid": "8"
            },
            {
             "dataDate": "2019-11-14",
             "weather": "多雲時陰短暫雨",
             "weatherid": "9"
            },
            {
             "dataDate": "2019-11-15",
             "weather": "多雲時陰短暫雨",
             "weatherid": "9"
            }
           ]
          },
          "MaxT": {
           "daily": [
            {
             "dataDate": "2019-11-09",
             "temperature": "26"
            },
            {
             "dataDate": "2019-11-10",
             "temperature": "25"
            },
            {
             "dataDate": "2019-11-11",
             "temperature": "26"
            },
            {
             "dataDate": "2019-11-12",
             "temperature": "27"
            },
            {
             "dataDate": "2019-11-13",
             "temperature": "26"
            },
            {
             "dataDate": "2019-11-14",
             "temperature": "24"
            },
            {
             "dataDate": "2019-11-15",
             "temperature": "23"
            }
           ]
          },
          "MinT": {
           "daily": [
            {
             "dataDate": "2019-11-09",
             "temperature": "19"
            },
            {
             "dataDate": "2019-11-10",
             "temperature": "18"
            },
            {
             "dataDate": "2019-11-11",
             "temperature": "18"
            },
            {
             "dataDate": "2019-11-12",
             "temperature": "19"
            },
            {
             "dataDate": "2019-11-13",
             "temperature": "20"
            },
            {
             "dataDate": "2019-11-14",
             "temperature": "19"
            },
            {
             "dataDate": "2019-11-15",
             "temperature": "18"
            }
           ]
          }
         }
        },
        {
         "locationName": "東部地區",
         "weatherElements": {
          "Wx": {
           "daily": [
            {
             "dataDate": "2019-11-09",
             "weather": "多雲",
             "weatherid": "4"
            },
            {
             "dataDate": "2019-11-10",
             "weather": "多雲",
             "weatherid": "4"
            },
            {
             "dataDate": "2019-11-11",
             "weather": "多雲",
             "weatherid": "4"
            },
            {
             "dataDate": "2019-11-12",
             "weather": "晴時多雲",
             "weatherid": "2"
            },
            {
             "dataDate": "2019-11-13",
             "weather": "晴時多雲",
             "weatherid": "2"
            },
            {
             "dataDate": "2019-11-14",
             "weather": "多雲短暫雨",
             "weatherid": "8"
            },
            {
             "dataDate": "2019-11-15",
             "weather": "多雲短暫雨",
             "weatherid": "8"
            }
           ]
          },
          "MaxT": {
           "daily": [
            {
             "dataDate": "2019-11-09",
             "temperature": "27"
            },
            {
             "dataDate": "2019-11-10",
             "temperature": "26"
            },
            {
             "dataDate": "2019-11-11",
             "temperature": "27"
            },
            {
             "dataDate": "2019-11-12",
             "temperature": "27"
            },
            {
             "dataDate": "2019-11-13",
             "temperature": "27"
            },
            {
             "dataDate": "2019-11-14",
             "temperature": "27"
            },
            {
             "dataDate": "2019-11-15",
             "temperature": "26"
            }
           ]
          },
          "MinT": {
           "daily": [
            {
             "dataDate": "2019-11-09",
             "temperature": "20"
            },
            {
             "dataDate": "2019-11-10",
             "temperature": "19"
            },
            {
             "dataDate": "2019-11-11",
             "temperature": "20"
            },
            {
             "dataDate": "2019-11-12",
             "temperature": "21"
            },
            {
             "dataDate": "2019-11-13",
             "temperature": "21"
            },
            {
             "dataDate": "2019-11-14",
             "temperature": "20"
            },
            {
             "dataDate": "2019-11-15",
             "temperature": "18"
            }
           ]
          }
         }
        },
        {
         "locationName": "東南部地區",
         "weatherElements": {
          "Wx": {
           "daily": [
            {
             "dataDate": "2019-11-09",
             "weather": "晴時多雲",
             "weatherid": "2"
            },
            {
             "dataDate": "2019-11-10",
             "weather": "多雲時晴",
             "weatherid": "3"
            },
            {
             "dataDate": "2019-11-11",
             "weather": "多雲時晴",
             "weatherid": "3"
            },
            {
             "dataDate": "2019-11-12",
             "weather": "多雲時晴",
             "weatherid": "3"
            },
            {
             "dataDate": "2019-11-13",
             "weather": "多雲",
             "weatherid": "4"
            },
            {
             "dataDate": "2019-11-14",
             "weather": "多雲短暫雨",
             "weatherid": "8"
            },
            {
             "dataDate": "2019-11-15",
             "weather": "多雲短暫雨",
             "weatherid": "8"
            }
           ]
          },
          "MaxT": {
           "daily": [
            {
             "dataDate": "2019-11-09",
             "temperature": "27"
            },
            {
             "dataDate": "2019-11-10",
             "temperature": "27"
            },
            {
             "dataDate": "2019-11-11",
             "temperature": "27"
            },
            {
             "dataDate": "2019-11-12",
             "temperature": "28"
            },
            {
             "dataDate": "2019-11-13",
             "temperature": "28"
            },
            {
             "dataDate": "2019-11-14",
             "temperature": "28"
            },
            {
             "dataDate": "2019-11-15",
             "temperature": "26"
            }
           ]
          },
          "MinT": {
           "daily": [
            {
             "dataDate": "2019-11-09",
             "temperature": "20"
            },
            {
             "dataDate": "2019-11-10",
             "temperature": "19"
            },
            {
             "dataDate": "2019-11-11",
             "temperature": "20"
            },
            {
             "dataDate": "2019-11-12",
             "temperature": "21"
            },
            {
             "dataDate": "2019-11-13",
             "temperature": "21"
            },
            {
             "dataDate": "2019-11-14",
             "temperature": "20"
            },
            {
             "dataDate": "2019-11-15",
             "temperature": "19"
            }
           ]
          }
         }
        }
       ]
      },
      "agrAdvices": {
       "agrForecasts": {
        "location": [
         {
          "locationName": "北部地區",
          "weatherElements": {
           "daily": [
            {
             "dataDate": "2019-11-09",
             "degreeDay": "12.0",
             "accumulatedTemperature": "12.0"
            },
            {
             "dataDate": "2019-11-10",
             "degreeDay": "11.5",
             "accumulatedTemperature": "23.5"
            },
            {
             "dataDate": "2019-11-11",
             "degreeDay": "11.5",
             "accumulatedTemperature": "35.0"
            },
            {
             "dataDate": "2019-11-12",
             "degreeDay": "12.5",
             "accumulatedTemperature": "47.5"
            },
            {
             "dataDate": "2019-11-13",
             "degreeDay": "12.5",
             "accumulatedTemperature": "60.0"
            },
            {
             "dataDate": "2019-11-14",
             "degreeDay": "12.0",
             "accumulatedTemperature": "72.0"
            },
            {
             "dataDate": "2019-11-15",
             "degreeDay": "12.0",
             "accumulatedTemperature": "84.0"
            }
           ]
          }
         },
         {
          "locationName": "中部地區",
          "weatherElements": {
           "daily": [
            {
             "dataDate": "2019-11-09",
             "degreeDay": "13.5",
             "accumulatedTemperature": "13.5"
            },
            {
             "dataDate": "2019-11-10",
             "degreeDay": "12.5",
             "accumulatedTemperature": "26.0"
            },
            {
             "dataDate": "2019-11-11",
             "degreeDay": "13.0",
             "accumulatedTemperature": "39.0"
            },
            {
             "dataDate": "2019-11-12",
             "degreeDay": "14.0",
             "accumulatedTemperature": "53.0"
            },
            {
             "dataDate": "2019-11-13",
             "degreeDay": "14.0",
             "accumulatedTemperature": "67.0"
            },
            {
             "dataDate": "2019-11-14",
             "degreeDay": "14.0",
             "accumulatedTemperature": "81.0"
            },
            {
             "dataDate": "2019-11-15",
             "degreeDay": "14.5",
             "accumulatedTemperature": "95.5"
            }
           ]
          }
         },
         {
          "locationName": "南部地區",
          "weatherElements": {
           "daily": [
            {
             "dataDate": "2019-11-09",
             "degreeDay": "14.5",
             "accumulatedTemperature": "14.5"
            },
            {
             "dataDate": "2019-11-10",
             "degreeDay": "13.0",
             "accumulatedTemperature": "27.5"
            },
            {
             "dataDate": "2019-11-11",
             "degreeDay": "14.5",
             "accumulatedTemperature": "42.0"
            },
            {
             "dataDate": "2019-11-12",
             "degreeDay": "14.5",
             "accumulatedTemperature": "56.5"
            },
            {
             "dataDate": "2019-11-13",
             "degreeDay": "15.0",
             "accumulatedTemperature": "71.5"
            },
            {
             "dataDate": "2019-11-14",
             "degreeDay": "16.0",
             "accumulatedTemperature": "87.5"
            },
            {
             "dataDate": "2019-11-15",
             "degreeDay": "14.5",
             "accumulatedTemperature": "102.0"
            }
           ]
          }
         },
         {
          "locationName": "東北部地區",
          "weatherElements": {
           "daily": [
            {
             "dataDate": "2019-11-09",
             "degreeDay": "12.5",
             "accumulatedTemperature": "12.5"
            },
            {
             "dataDate": "2019-11-10",
             "degreeDay": "11.5",
             "accumulatedTemperature": "24.0"
            },
            {
             "dataDate": "2019-11-11",
             "degreeDay": "12.0",
             "accumulatedTemperature": "36.0"
            },
            {
             "dataDate": "2019-11-12",
             "degreeDay": "13.0",
             "accumulatedTemperature": "49.0"
            },
            {
             "dataDate": "2019-11-13",
             "degreeDay": "13.0",
             "accumulatedTemperature": "62.0"
            },
            {
             "dataDate": "2019-11-14",
             "degreeDay": "11.5",
             "accumulatedTemperature": "73.5"
            },
            {
             "dataDate": "2019-11-15",
             "degreeDay": "10.5",
             "accumulatedTemperature": "84.0"
            }
           ]
          }
         },
         {
          "locationName": "東部地區",
          "weatherElements": {
           "daily": [
            {
             "dataDate": "2019-11-09",
             "degreeDay": "13.5",
             "accumulatedTemperature": "13.5"
            },
            {
             "dataDate": "2019-11-10",
             "degreeDay": "12.5",
             "accumulatedTemperature": "26.0"
            },
            {
             "dataDate": "2019-11-11",
             "degreeDay": "13.5",
             "accumulatedTemperature": "39.5"
            },
            {
             "dataDate": "2019-11-12",
             "degreeDay": "14.0",
             "accumulatedTemperature": "53.5"
            },
            {
             "dataDate": "2019-11-13",
             "degreeDay": "14.0",
             "accumulatedTemperature": "67.5"
            },
            {
             "dataDate": "2019-11-14",
             "degreeDay": "13.5",
             "accumulatedTemperature": "81.0"
            },
            {
             "dataDate": "2019-11-15",
             "degreeDay": "12.0",
             "accumulatedTemperature": "93.0"
            }
           ]
          }
         },
         {
          "locationName": "東南部地區",
          "weatherElements": {
           "daily": [
            {
             "dataDate": "2019-11-09",
             "degreeDay": "13.5",
             "accumulatedTemperature": "13.5"
            },
            {
             "dataDate": "2019-11-10",
             "degreeDay": "13.0",
             "accumulatedTemperature": "26.5"
            },
            {
             "dataDate": "2019-11-11",
             "degreeDay": "13.5",
             "accumulatedTemperature": "40.0"
            },
            {
             "dataDate": "2019-11-12",
             "degreeDay": "14.5",
             "accumulatedTemperature": "54.5"
            },
            {
             "dataDate": "2019-11-13",
             "degreeDay": "14.5",
             "accumulatedTemperature": "69.0"
            },
            {
             "dataDate": "2019-11-14",
             "degreeDay": "14.0",
             "accumulatedTemperature": "83.0"
            },
            {
             "dataDate": "2019-11-15",
             "degreeDay": "12.5",
             "accumulatedTemperature": "95.5"
            }
           ]
          }
         }
        ]
       },
       "cropStatistics": {
        "crop": {
         "cropName": "水稻",
         "cardinalTemperatures": {
          "growingStage": {
           "description": "稻作生長溫度",
           "minimum": "10",
           "maximum": "40"
          }
         },
         "location": [
          {
           "locationName": "臺中地區",
           "cropBreed": "臺農67號",
           "statistics": {
            "fifteenYears": {
             "description": "二期稻作生育日數及生育期總積溫(15年平均值)",
             "timePeriod": [
              {
               "description": "插秧至抽穗",
               "growingDays": "66",
               "accumulatedTemperature": "1203.35"
              },
              {
               "description": "插秧至收穫",
               "growingDays": "107",
               "accumulatedTemperature": "1794.83"
              }
             ]
            },
            "thisYear": {
             "description": "108年二期稻作積溫值 (各改良場豐歉試驗臺農67號)",
             "dibblingDate": "2019-08-03",
             "timePeriod": {
              "description": "插秧至本日",
              "startDate": "2019-08-03",
              "endDate": "2019-11-07",
              "growingDays": "97",
              "accumulatedTemperature": "1695.1"
             }
            }
           }
          },
          {
           "locationName": "花蓮地區",
           "cropBreed": "臺農67號",
           "statistics": {
            "fifteenYears": {
             "description": "二期稻作生育日數及生育期總積溫(15年平均值)",
             "timePeriod": [
              {
               "description": "插秧至抽穗",
               "growingDays": "71",
               "accumulatedTemperature": "1184.31"
              },
              {
               "description": "插秧至收穫",
               "growingDays": "119",
               "accumulatedTemperature": "1778.01"
              }
             ]
            },
            "thisYear": {
             "description": "108年二期稻作積溫值 (各改良場豐歉試驗臺農67號)",
             "dibblingDate": "2019-08-07",
             "timePeriod": {
              "description": "插秧至本日",
              "startDate": "2019-08-07",
              "endDate": "2019-11-07",
              "growingDays": "93",
              "accumulatedTemperature": "1450.05"
             }
            }
           }
          }
         ]
        }
       },
       "agrReport": {
        "section": [
         {
          "content": 
"近期受東北季風強弱變化影響,各地早晚較涼,迎風面的北部及東半部地區有局部短暫雨,各地大多為多雲到晴,而中南部地區日夜溫差大;主要降雨在東北部、東半部、北部。明至下週一(9至11日)東北季風及輻射冷卻影響,早晚較涼,中南部日夜溫差大,各地大多為多雲到晴;僅東半部地區零星短暫雨。而後東北季風減弱,惟早晚仍涼,西半部日夜溫差大,下週二、三(12、13日)各地大多為多雲到晴;降雨方面,僅東北部及東部地區局部短暫雨,而下週三東南部地區亦有局部短暫雨。近期仍為農作物病蟲害好發期間,籲請農友持續做好田間病蟲害管理,並參考本局提供更精細之368鄉鎮天氣預報資訊,以有效規劃相關作業。",
          "subsection": [
           {
            "content": 
"東北季風影響期間,籲請相關地區農友做好水稻、雜糧、園藝等作物防範措施,並請提防病蟲為害,各類措施分述如下:1、水稻:宜適度調節田間給水供灌及適時預防白葉枯病、螟蟲、縱捲葉蟲、褐飛蝨與鳥害;並適時收割、乾燥。2、雜糧、園藝(含各類果樹、蔬菜)作物:園區宜適度給水供灌與適時各類病蟲害之預防;並適時收穫、乾燥、調製,天氣逐漸趨涼,籲請種植相關作物且符合疫病好發條件地區之農友提前留意白粉病、晚疫病等相關病害防治。3、籲請農友持續加強田間作物病蟲害防治,以確保農作收益。請特別留意綜合病蟲害管理(IPM)、合理化施肥之重要性;採溫(網)室等設施栽培之地區請注意溫度調節,以利作物生長。4、時序將進入秋、冬季時,預期降雨量將減少、請節約用水,有效應用水資源。"
           },
           {
            "content": 
"由於西半部地區早晚溫差大,清晨時植株葉片易有露水附著,適於馬鈴薯及番茄晚疫病的發生,如再碰上伴隨雨霧來襲,病害在田間的蔓延極為快速。請在連續陰雨之前施藥,即可有效控制。如田間已發生病害,應立即施藥,並進行清園工作。此外改善田間排水與通風,也是預防晚疫病的重要措施。"
           },
           {
            "content": "中南部可利用天氣相對穩定時進行收割作業,請二期稻作已屆收穫期之農友與代耕業者排程收穫,當稻穀呈現金黃色,僅末端2∼3粒稻穀黃綠色時,為最佳收穫期。適時收穫稻穀飽滿度高、品質佳、濕度低折算乾穀重量多、收益增加。"
           }
          ]
         },
         {
          "content": "籲請農友防範葡萄露菌病,以避免疫情發生:",
          "subsection": [
           {
            "content": 
"葡萄露菌病主要發生在葉背面,嫩莖、花穗、幼小果粒及果軸亦皆可被害。罹病處初呈水浸狀,隨後產胞,如白霜覆蓋一般,造成組織褐化,隨後組織壞疽而呈角斑狀;罹病急速時,葉片產胞滿佈全葉隨後黃化枯萎掉落。果軸罹病時,成暗褐色並常腫大扭曲,造成果粒水浸狀褐化,隨後脫落。"
           },
           {
            "content": 
"葡萄冬果9月中旬至11月上旬發病,冬果萌芽後便有發生之機率,一旦開始發病,往往數日便造成果園大發生。發病初期可使用50%達滅芬可濕性粉劑4,000倍、76.5%銅滅達樂可濕性粉劑1,000倍、72%鋅錳克絕可濕性粉劑750倍、64%甲鋅毆殺斯可濕性粉劑600倍及9.4%賽座滅水懸劑3,000倍等。除上列藥劑外,尚可選用植物保護手冊推薦在葡萄露菌病的其它藥劑防治之。此外,適當修剪以保持通風,可減緩病菌的蔓延。(參考資料來源:行政院農業委員會臺中區農業改良場、行政院農業委員會動植物防疫檢疫局)"
           }
          ]
         },
         {
          "content": "籲請相關地區農友留意甘藷蟻象防治工作:",
          "subsection": [
           {
            "content": "甘藷蟻象為我國甘藷最重要之害蟲,在澎湖及旱作地帶較為嚴重。在臺灣地區年發生7∼8代,周年以8∼隔年1月間以乾燥期間為發生盛期,3∼8月間較少。"
           },
           {
            "content": 
"危害狀:成蟲喜棲息在暗處或葉蔓間,雌蟲交尾後由土隙間潛入土中,至主蔓或塊根表皮,以口器嚙孔,後插入產卵管將卵產於孔內,產卵後再以蛀孔時之嚙起物蓋之,一孔為一粒。孵化幼蟲蛀入主蔓或塊根內潛行嚙食,被害痕呈褐色且木栓化、具惡臭,俗稱「臭香」,被害塊根不能食。本蟲為害常由塊根頂部開始,其為害狀與緣葉蟲相反。"
           },
           {
            "content": 
"防治方法:1、選擇砂土或砂質土壤,被害較輕。2、避免連作,若需連作務必徹底清園,將前作之殘株集中燒毀,或浸水至少48小時。3、去除中間寄主牽牛花。4、加強期中覆土,避免塊根外露。5、使用性費洛蒙誘殺雄蟲,每分地設置4個,高度約葉蔓上10公分,有效期2∼3個月。(參考資料來源:行政院農業委員會)"
           }
          ]
         },
         {
          "content": "籲請種植玉米農友留意玉米(金秀)病之預防:",
          "subsection": [
           {
            "content": "夏孢子發芽後由氣孔侵入,16∼23℃最適發病,但必須要有由游離子和夏孢子才會發芽,每年秋天至次年春天是發病期。"
           },
           {
            "content": 
"病徵:病斑多見於葉片,但葉鞘及苞葉也會感染。夏孢子堆生在葉片表皮下,為小圓形到細長形,初期為植物表皮所覆蓋,但幾天後即破裂,破裂後產生咖啡色粉末狀之夏孢子,附在病斑之寄主植物的表皮很容易用肉眼觀察到,發病後期若遇低溫就會形成深褐色到黑色之冬孢子堆,冬孢子堆成開敞狀,為病菌之有性世代,幼苗期之感受性比成株大,但田間發生在開花期以後比較嚴重。"
           },
           {
            "content": 
"防治方法:1、栽培抗病品種。2、藥劑防治:藥劑應選用植物保護資訊系統(https://otserv2.tactri.gov.tw/ppm/)核准藥劑施用濃度與方式請務必依照推薦方法,並留意安全採收期,以避免藥害及殘留過量發生。(參考資料來源:行政院農業委員會、行政院農業委員會農業藥物毒物試驗所)"
           }
          ]
         },
         {
          "content": "掌握秋行軍蟲防治黃金時期正確施藥,確保農友收益:",
          "subsection": [
           {
            "content": 
"「秋行軍蟲災害緊急應變小組」(簡稱應變小組)表示,秋行軍蟲偏好取食植株幼嫩時期,於作物苗期階段,早期發現,正確防治,效果最佳。秋行軍蟲習性與斜紋夜蛾差異大,鑽入植株心葉即不移動,防治斜紋夜蛾之施藥方法對秋行軍蟲效果並不好,農友應重新調整。此外,用藥時機及藥劑種類與防治效果有密切相關,目前公告之秋行軍蟲緊急防治藥劑多屬觸殺型藥劑,農友施用時須慎選施藥機具及方法,藥劑用水量須足夠,且放慢施藥速度,須確保藥劑能滲入心葉,接觸蟲體,防治效果才會好。農友如有防治相關技術問題,均可就近洽詢農委會所屬各區農業改良場專家。"
           },
           {
            "content": 
"為確保秋行軍蟲公告緊急防治藥劑之防治效果,亦借重國立臺灣大學、中興大學、嘉義大學及屏東科技大學四所大學植物醫師團隊之專業人才,執行玉米及高粱秋行軍蟲緊急防治藥劑田間藥效試驗,結果證實於作物受害初期之苗期階段時,選用適當機具且正確使用防治藥劑情況下,均有良好防治成效。"
           },
           {
            "content": 
"應變小組強調,有機田區核准使用之蘇力菌因作用機制屬於中腸毒性,須經蟲體攝食後才有毒殺效果,當施用時機過晚,蟲體如已蛀入心葉後,防治效果則相對較差,農友應多加留意;因秋行軍蟲易產生抗藥性,防治應輪替使用不同作用機制藥劑。為協助農民正確施藥,以達最佳防治效果,農委會所屬各區農業改良場均有提供相關諮詢服務及用藥技術指導,農友有需求可於上班時間撥打各區農業改良場諮詢專線(行政院農業委員會桃園區農業改良場03-4760852;苗栗區農業改良場037-236619;臺中區農業改良場04-8523101;臺南區農業改良場06-5912901;高雄區農業改良場08-7389060;花蓮區農業改良場03-8535915;臺東區農業改良場089-325110),農委會動植物防疫檢疫局另提供24小時免付費專線0800-039-131。"
           },
           {
            "content": 
"為防杜秋行軍蟲蔓延危害,種植玉米農友應主動赴田間主動巡查,如有發現疑似秋行軍蟲個體,可透過防檢局防疫小尖兵臉書或防檢局LINE@進行通報並上傳照片、影像,以利快速鑑定並採取緊急防治措施;另為提升農民秋行軍蟲辨識及自主管理能力,農委會所屬試驗場所及各地方政府針對重點產區持續密集辦理秋行軍蟲宣導講習。"
           },
           {
            "content": 
"截至11月7日止,全國各縣市共有秋行軍蟲幼蟲確診案場發生面積共約13,833公頃;其中管制面積13,785公頃,解列面積48公頃;已處理面積9,804公頃,待處理面積4,029公頃。秋行軍蟲相關疫情資訊,每日更新於「秋行軍蟲專區」(網址:http://faw.baphiq.gov.tw/)。(參考資料來源:行政院農業委員會動植物防疫檢疫局)"
           }
          ]
         },
         {
          "content": "二期水稻好發白葉枯病,籲請符合疫病條件地區農友持續防治作業:",
          "subsection": [
           {
            "content": "水稻白葉枯病為細菌性病害,主要危害葉片或葉鞘,受感染時常在離葉尖數公分處的葉緣出現水浸狀小斑,然後逐漸延長而成二側波浪狀枯黃病葉。露水未乾時,細菌會在葉緣水孔溢泌菌泥,隨人員走動或雨水傳播。"
           },
           {
            "content": 
"防治對策:1、常發病地區及風大地區避免種植感病品種。2、勿用手拔及剪除水稻葉尖,以避免病原菌由傷口侵入。3、避免行株距過窄,容易不通風溼度較高。4、合理化施肥,避免過量氮肥。5、清除田間雜草。6、雨後及露水未乾前避免噴藥或進入田區,以減少人為傳播病菌。7、發病稻田翻耕後浸水二週以上,降低下期初次感染源。8、化學防治請選用核准登記及推薦使用的藥劑,請參閱農藥資訊服務網http://pesticide.baphiq.gov.tw。(參考資料來源:行政院農業委員會動植物防疫檢疫局)"
           }
          ]
         },
         {
          "content": "行政院農業委員會動植物防疫檢疫局(以下簡稱防檢局)為協助農友及時掌握疫情現況並提早預為因應,已建構完成疫情簡易燈號資訊服務網,並透過不同燈號提供疫情最新現況資訊,提供農友參考:",
          "subsection": [
           {
            "content": "「綠燈」表示尚無該疫病情及發生風險。"
           },
           {
            "content": "「藍燈」表示環境適合該疫病發生,應加強注意及早防範。"
           },
           {
            "content": "「黃燈」表示田間已有部分該疫病輕度危害,可能發生流行性疫情,應加強注意田間疫情現況並適時進行防治。"
           },
           {
            "content": "「紅燈」表示該疫病已於田間大規模發生,應立即加強防治措施,否則將對收穫造成重大損失。"
           },
           {
            "content": "為強化水稻疫情之預警措施,防檢局即時將相關疫情資訊建置於該局植物疫情民眾服務站—水稻疫情預警圖。(https://phis.baphiq.gov.tw/WebEvery.nsf/index)"
           }
          ]
         },
         {
          "content": "二期稻作陸續收穫,稻稈請翻埋入田中,避免露天燃燒:",
          "subsection": [
           {
            "content": 
"目前正逢第2期作水稻收穫期,行政院農業委員會農糧署呼籲農友切勿隨意燃燒稻草,應利用收穫時切碎稻草後掩埋入土壤中當作肥料,一來可以充分利用稻草本身含有的營養成分再利用,二來可減少空氣污染及視野障礙,尤其露天燃燒稻草,依「空氣污染防制法」可裁處1千2百元以上至10萬元以下罰鍰,農友應改變露天焚燒稻草的行為,以兼顧農村環境及維護生態環境品質。"
           },
           {
            "content": 
"輔導農友妥善處理稻草:1、農糧署說明,由於稻草收集及運搬不易,部分農民習慣於稻穀收穫後採最簡便迅速的燒燬方式來處理稻草,但燃燒時的高溫會破壞表土微生物相,且稻草灰會造成過多碳酸鉀及氧化鈣致土壤酸化及肥力不均情形,而產生的濃煙及粒狀污染物亦會污染空氣,直接影響民眾健康及道路行車安全。2、稻草含有機物約90%,農政單位一向鼓勵農友在收穫時併行斬草及整地作業,將收穫後之稻草切碎拌入土中,使稻草回歸農地以增加有機質及礦物質含量,其為農友可簡易處理稻草的選項之一,有效節省勞力與處理成本,且可補充稻田養分,107年約有8成以上之水稻田採此方式處理稻草。3、為提供農友更多元之稻草處理技術,行政院農業委員會臺中區農業改良場及苗栗區農業改良場研發能促進稻草分解與再利用效率之微生物製劑(稻草分解腐化菌),可增進米質、提高水稻產量、減少化學肥料的使用量,並可加速稻草分解速度縮短7∼14天。該署與行政院環境保護署共同補助農友施用,凡列入「促進稻草分解能力有機質肥料品牌推薦名單」之產品(農糧署網站╱農糧業務╱土壤肥料專區╱稻草分解菌有機質肥料補助https://www.afa.gov.tw/cht/index.php?code=list&ids=2214,每公斤補助5元,每公頃最高200公斤補助1,000元,歡迎農友至當地農會申請補助。"
           },
           {
            "content": 
"循序引導以兼顧農友權益:1、農糧署指出,配合環保署空氣污染防制作為,自107年起同一田區經環保單位查獲或農政單位判釋有露天燃燒稻草情事者,第一次查獲仍採宣導方式,提醒露天燃燒稻草所產生問題及說明其他循環再利用做法,第二次查獲始暫停申報種稻(含稻作直接給付)、轉(契)作、生產環境維護措施及收購公糧之資格1次;暫停期作以第2次查獲(判釋)露天燃燒之期作別為原則,僅單一期作符合基期年農地就符合之期作辦理。2、為輔導稻農改變燃燒稻草習慣,重視生活環境品質及維護重要公路行車安全,農糧署將持續與行政院環境保護署、各地方政府農業局處、環保機關及各地區農業改良場,共同辦理宣導說明會,以加強宣導稻草處理技術及補助稻農施用具稻草分解能力有機質產品等方式,期能強化農友不可露天燃燒觀念,守護農友健康並避免因違反「空氣污染防治法」之規定而受罰。(資料來源:行政院農業委員會農糧署)"
           }
          ]
         }
        ]
       }
      },
      "remark": [
       "註1:天氣預報中,各縣市預報以各縣市政府所在地附近為預報參考位置。",
       "註2:天氣預報高低氣溫出現同值時,表示兩者差距在1℃以內。",
       "註3:度日(Degree-days):植物發育時所需之有效溫度單位。",
       "註4:積溫:植物發育過程中,當各生育階段有效溫度累積至一定數值時,即可完成發育。該數值即稱為此一發育階段所需的積溫。",
       "註5:分別以臺中區農改場、高雄區農改場及花蓮區農改場所進行豐欠試驗稻作和氣象觀測資料進行稻作積溫值計算。",
       "註6:稻作積溫值計算出現「-」符號表示該地目前尚未插秧或已經收割。",
       "註7:稻作最低、最高生長溫度以10℃、40℃為基準。"
      ]
     }
    }
   }
  }
 }
}
